^C:\USERS\T\DOCUMENTS\VISUAL STUDIO 2013\PROJECTS\VIDEOCS\VIDEOCS\STDAFX.CPP
/c /IC:\opencv\build\\include /Zi /nologo /W3 /WX- /sdl /Od /D WIN32 /D _DEBUG /D _CONSOLE /D _LIB /D _UNICODE /D UNICODE /Gm /EHsc /RTC1 /MDd /GS /fp:precise /Zc:wchar_t /Zc:forScope /Yc"stdafx.h" /Fp"X64\DEBUG\VIDEOCS.PCH" /Fo"X64\DEBUG\\" /Fd"X64\DEBUG\VC120.PDB" /Gd /TP C:\USERS\T\DOCUMENTS\VISUAL STUDIO 2013\PROJECTS\VIDEOCS\VIDEOCS\STDAFX.CPP
^C:\USERS\T\DOCUMENTS\VISUAL STUDIO 2013\PROJECTS\VIDEOCS\VIDEOCS\VIDEOCS.CPP
/c /IC:\opencv\build\\include /Zi /nologo /W3 /WX- /sdl /Od /D WIN32 /D _DEBUG /D _CONSOLE /D _LIB /D _UNICODE /D UNICODE /Gm /EHsc /RTC1 /MDd /GS /fp:precise /Zc:wchar_t /Zc:forScope /Yu"stdafx.h" /Fp"X64\DEBUG\VIDEOCS.PCH" /Fo"X64\DEBUG\\" /Fd"X64\DEBUG\VC120.PDB" /Gd /TP C:\USERS\T\DOCUMENTS\VISUAL STUDIO 2013\PROJECTS\VIDEOCS\VIDEOCS\VIDEOCS.CPP
