^C:\USERS\T\DOCUMENTS\VISUAL STUDIO 2013\PROJECTS\VIDEOCS\VIDEOCS\STDAFX.CPP|C:\USERS\T\DOCUMENTS\VISUAL STUDIO 2013\PROJECTS\VIDEOCS\VIDEOCS\VISH.CPP
C:\USERS\T\DOCUMENTS\VISUAL STUDIO 2013\PROJECTS\VIDEOCS\X64\RELEASE\VC120.PDB
C:\USERS\T\DOCUMENTS\VISUAL STUDIO 2013\PROJECTS\VIDEOCS\X64\RELEASE\VISH.OBJ
C:\USERS\T\DOCUMENTS\VISUAL STUDIO 2013\PROJECTS\VIDEOCS\X64\RELEASE\STDAFX.OBJ
^C:\USERS\T\DOCUMENTS\VISUAL STUDIO 2013\PROJECTS\VIDEOCS\VIDEOCS\STDAFX.CPP
C:\USERS\T\DOCUMENTS\VISUAL STUDIO 2013\PROJECTS\VIDEOCS\X64\RELEASE\VC120.PDB
^C:\USERS\T\DOCUMENTS\VISUAL STUDIO 2013\PROJECTS\VIDEOCS\VIDEOCS\VISH1.5.CPP
C:\USERS\T\DOCUMENTS\VISUAL STUDIO 2013\PROJECTS\VIDEOCS\X64\RELEASE\VC120.PDB
C:\USERS\T\DOCUMENTS\VISUAL STUDIO 2013\PROJECTS\VIDEOCS\X64\RELEASE\VISH1.5.OBJ
^C:\USERS\T\DOCUMENTS\VISUAL STUDIO 2013\PROJECTS\VIDEOCS\VIDEOCS\VISH.CPP
C:\USERS\T\DOCUMENTS\VISUAL STUDIO 2013\PROJECTS\VIDEOCS\X64\RELEASE\VC120.PDB
C:\USERS\T\DOCUMENTS\VISUAL STUDIO 2013\PROJECTS\VIDEOCS\X64\RELEASE\VISH.OBJ
