^C:\USERS\T\DOCUMENTS\VISUAL STUDIO 2013\PROJECTS\VIDEOCS\VIDEOCS\X64\RELEASE\STDAFX.OBJ|C:\USERS\T\DOCUMENTS\VISUAL STUDIO 2013\PROJECTS\VIDEOCS\VIDEOCS\X64\RELEASE\VIDEOCS.OBJ
C:\OPENCV\BUILD\X64\VC12\STATICLIB\OPENCV_CALIB3D2410.LIB
C:\OPENCV\BUILD\X64\VC12\STATICLIB\OPENCV_CALIB3D2410D.LIB
C:\OPENCV\BUILD\X64\VC12\STATICLIB\OPENCV_CONTRIB2410.LIB
C:\OPENCV\BUILD\X64\VC12\STATICLIB\OPENCV_CONTRIB2410D.LIB
C:\OPENCV\BUILD\X64\VC12\STATICLIB\OPENCV_CORE2410.LIB
C:\OPENCV\BUILD\X64\VC12\STATICLIB\OPENCV_CORE2410D.LIB
C:\OPENCV\BUILD\X64\VC12\STATICLIB\OPENCV_FEATURES2D2410.LIB
C:\OPENCV\BUILD\X64\VC12\STATICLIB\OPENCV_FEATURES2D2410D.LIB
C:\OPENCV\BUILD\X64\VC12\STATICLIB\OPENCV_FLANN2410.LIB
C:\OPENCV\BUILD\X64\VC12\STATICLIB\OPENCV_FLANN2410D.LIB
C:\OPENCV\BUILD\X64\VC12\STATICLIB\OPENCV_GPU2410.LIB
C:\OPENCV\BUILD\X64\VC12\STATICLIB\OPENCV_GPU2410D.LIB
C:\OPENCV\BUILD\X64\VC12\STATICLIB\OPENCV_HIGHGUI2410.LIB
C:\OPENCV\BUILD\X64\VC12\STATICLIB\OPENCV_HIGHGUI2410D.LIB
C:\OPENCV\BUILD\X64\VC12\STATICLIB\OPENCV_IMGPROC2410.LIB
C:\OPENCV\BUILD\X64\VC12\STATICLIB\OPENCV_IMGPROC2410D.LIB
C:\OPENCV\BUILD\X64\VC12\STATICLIB\OPENCV_LEGACY2410.LIB
C:\OPENCV\BUILD\X64\VC12\STATICLIB\OPENCV_LEGACY2410D.LIB
C:\OPENCV\BUILD\X64\VC12\STATICLIB\OPENCV_ML2410.LIB
C:\OPENCV\BUILD\X64\VC12\STATICLIB\OPENCV_ML2410D.LIB
C:\OPENCV\BUILD\X64\VC12\STATICLIB\OPENCV_NONFREE2410.LIB
C:\OPENCV\BUILD\X64\VC12\STATICLIB\OPENCV_NONFREE2410D.LIB
C:\OPENCV\BUILD\X64\VC12\STATICLIB\OPENCV_OBJDETECT2410.LIB
C:\OPENCV\BUILD\X64\VC12\STATICLIB\OPENCV_OBJDETECT2410D.LIB
C:\OPENCV\BUILD\X64\VC12\STATICLIB\OPENCV_OCL2410.LIB
C:\OPENCV\BUILD\X64\VC12\STATICLIB\OPENCV_OCL2410D.LIB
C:\OPENCV\BUILD\X64\VC12\STATICLIB\OPENCV_PHOTO2410.LIB
C:\OPENCV\BUILD\X64\VC12\STATICLIB\OPENCV_PHOTO2410D.LIB
C:\OPENCV\BUILD\X64\VC12\STATICLIB\OPENCV_STITCHING2410.LIB
C:\OPENCV\BUILD\X64\VC12\STATICLIB\OPENCV_STITCHING2410D.LIB
C:\OPENCV\BUILD\X64\VC12\STATICLIB\OPENCV_SUPERRES2410.LIB
C:\OPENCV\BUILD\X64\VC12\STATICLIB\OPENCV_SUPERRES2410D.LIB
C:\OPENCV\BUILD\X64\VC12\STATICLIB\OPENCV_TS300.LIB
C:\OPENCV\BUILD\X64\VC12\STATICLIB\OPENCV_TS300D.LIB
C:\OPENCV\BUILD\X64\VC12\STATICLIB\OPENCV_TS2410.LIB
C:\OPENCV\BUILD\X64\VC12\STATICLIB\OPENCV_TS2410D.LIB
C:\OPENCV\BUILD\X64\VC12\STATICLIB\OPENCV_VIDEO2410.LIB
C:\OPENCV\BUILD\X64\VC12\STATICLIB\OPENCV_VIDEO2410D.LIB
C:\OPENCV\BUILD\X64\VC12\STATICLIB\OPENCV_VIDEOSTAB2410.LIB
C:\OPENCV\BUILD\X64\VC12\STATICLIB\OPENCV_VIDEOSTAB2410D.LIB
C:\OPENCV\BUILD\X64\VC12\STATICLIB\LIBPNG.LIB
C:\OPENCV\BUILD\X64\VC12\STATICLIB\LIBTIFF.LIB
C:\OPENCV\BUILD\X64\VC12\STATICLIB\ZLIB.LIB
C:\OPENCV\BUILD\X64\VC12\STATICLIB\ILMIMF.LIB
C:\OPENCV\BUILD\X64\VC12\STATICLIB\LIBJASPER.LIB
C:\OPENCV\BUILD\X64\VC12\STATICLIB\LIBJPEG.LIB
C:\PROGRAM FILES (X86)\WINDOWS KITS\8.1\LIB\WINV6.3\UM\X64\VFW32.LIB
C:\PROGRAM FILES (X86)\WINDOWS KITS\8.1\LIB\WINV6.3\UM\X64\KERNEL32.LIB
C:\PROGRAM FILES (X86)\WINDOWS KITS\8.1\LIB\WINV6.3\UM\X64\USER32.LIB
C:\PROGRAM FILES (X86)\WINDOWS KITS\8.1\LIB\WINV6.3\UM\X64\GDI32.LIB
C:\PROGRAM FILES (X86)\WINDOWS KITS\8.1\LIB\WINV6.3\UM\X64\WINSPOOL.LIB
C:\PROGRAM FILES (X86)\WINDOWS KITS\8.1\LIB\WINV6.3\UM\X64\COMDLG32.LIB
C:\PROGRAM FILES (X86)\WINDOWS KITS\8.1\LIB\WINV6.3\UM\X64\ADVAPI32.LIB
C:\PROGRAM FILES (X86)\WINDOWS KITS\8.1\LIB\WINV6.3\UM\X64\SHELL32.LIB
C:\PROGRAM FILES (X86)\WINDOWS KITS\8.1\LIB\WINV6.3\UM\X64\OLE32.LIB
C:\PROGRAM FILES (X86)\WINDOWS KITS\8.1\LIB\WINV6.3\UM\X64\OLEAUT32.LIB
C:\PROGRAM FILES (X86)\WINDOWS KITS\8.1\LIB\WINV6.3\UM\X64\UUID.LIB
C:\PROGRAM FILES (X86)\WINDOWS KITS\8.1\LIB\WINV6.3\UM\X64\ODBC32.LIB
C:\PROGRAM FILES (X86)\WINDOWS KITS\8.1\LIB\WINV6.3\UM\X64\ODBCCP32.LIB
C:\USERS\T\DOCUMENTS\VISUAL STUDIO 2013\PROJECTS\VIDEOCS\VIDEOCS\X64\RELEASE\STDAFX.OBJ
C:\USERS\T\DOCUMENTS\VISUAL STUDIO 2013\PROJECTS\VIDEOCS\VIDEOCS\X64\RELEASE\VIDEOCS.OBJ
C:\WINDOWS\GLOBALIZATION\SORTING\SORTDEFAULT.NLS
C:\PROGRAM FILES (X86)\MICROSOFT VISUAL STUDIO 12.0\VC\BIN\X86_AMD64\C2.DLL
C:\PROGRAM FILES (X86)\MICROSOFT VISUAL STUDIO 12.0\VC\LIB\AMD64\LIBCMT.LIB
C:\PROGRAM FILES (X86)\MICROSOFT VISUAL STUDIO 12.0\VC\LIB\AMD64\OLDNAMES.LIB
C:\PROGRAM FILES (X86)\MICROSOFT VISUAL STUDIO 12.0\VC\LIB\AMD64\LIBCPMT.LIB
C:\PROGRAM FILES (X86)\MICROSOFT VISUAL STUDIO 12.0\VC\BIN\X86_AMD64\1033\LINKUI.DLL
C:\PROGRAM FILES (X86)\WINDOWS KITS\8.1\BIN\X86\RC.EXE
C:\PROGRAM FILES (X86)\MICROSOFT VISUAL STUDIO 12.0\VC\BIN\CVTRES.EXE
C:\WINDOWS\SYSTEM32\TZRES.DLL
C:\WINDOWS\SYSTEM32\RSAENH.DLL
